第 21 章 tidyverse进阶 | 数据科学中的 R 语言
…
# Group a data frame by all variables:
mtcars %>% group_by_all()

# Group by variables selected with a predicate:
iris %>% group_by_if(is.factor)

21.4.1 group_split(), group_map(), group_modify()

iris %>%
  group_by(Species) %>%
  group_split()

## [[1]]
## # A tibble: 50 x 5
##    Sepal.Length Sepal.Width Petal.Length Petal.Width
##           <dbl>       <dbl>        <dbl>       <dbl>
##  1          5.1         3.5          1.4         0.2
##  2          4.9         3            1.4         0.2
##  3          4.7         3.2          1.3         0.2
##  4          4.6         3.1          1.5         0.2
##  5          5           3.6          1.4         0.2
##  6          5.4         3.9          1.7         0.4
##  7          4.6         3.4          1.4         0.3
##  8          5           3.4          1.5         0.2
##  9          4.4         2.9          1.4         0.2
## 10          4.9         3.1          1.5         0.1
## # ... with 40 more rows, and 1 more variable:
## #   Species <fct>
## 
## [[2]]
## # A tibble: 50 x 5
##    Sepal.Length Sepal.Width Petal.Length Petal.Width
##           <dbl>       <dbl>        <dbl>       <dbl>
##  1          7           3.2          4.7         1.4
##  2          6.4         3.2          4.5         1.5
##  3          6.9         3.1          4.9         1.5
##  4          5.5         2.3          4           1.3
##  5          6.5         2.8          4.6         1.5
##  6          5.7         2.8          4.5         1.3
##  7          6.3         3.3          4.7         1.6
##  8          4.9         2.4          3.3         1  
##  9          6.6         2.9          4.6         1.3
## 10          5.2         2.7          3.9         1.4
## # ... with 40 more rows, and 1 more variable:
## #   Species <fct>
## 
## [[3]]
## # A tibble: 50 x 5
##    Sepal.Length Sepal.Width Petal.Length Petal.Width
##           <dbl>       <dbl>        <dbl>       <dbl>
##  1          6.3         3.3          6           2.5
##  2          5.8         2.7          5.1         1.9
##  3          7.1         3            5.9         2.1
##  4          6.3         2.9          5.6         1.8
##  5          6.5         3            5.8         2.2
##  6          7.6         3            6.6         2.1
##  7          4.9         2.5          4.5         1.7
##  8          7.3         2.9          6.3         1.8
##  9          6.7         2.5          5.8         1.8
## 10          7.2         3.6          6.1         2.5
## # ... with 40 more rows, and 1 more variable:
## #   Species <fct>
## 
## attr(,"ptype")
## # A tibble: 0 x 5
## # ... with 5 variables: Sepal.Length <dbl>,
## #   Sepal.Width <dbl>, Petal.Length <dbl>,
## #   Petal.Width <dbl>, Species <fct>

简单点写，就是

iris %>%
  group_split(Species)

## [[1]]
## # A tibble: 50 x 5
##    Sepal.Length Sepal.Width Petal.Length Petal.Width
##           <dbl>       <dbl>        <dbl>       <dbl>
##  1          5.1         3.5          1.4         0.2
##  2          4.9         3            1.4         0.2
##  3          4.7         3.2          1.3         0.2
##  4          4.6         3.1          1.5         0.2
##  5          5           3.6          1.4         0.2
##  6          5.4         3.9          1.7         0.4
##  7          4.6         3.4          1.4         0.3
##  8          5           3.4          1.5         0.2
##  9          4.4         2.9          1.4         0.2
## 10          4.9         3.1          1.5         0.1
## # ... with 40 more rows, and 1 more variable:
## #   Species <fct>
## 
## [[2]]
## # A tibble: 50 x 5
##    Sepal.Length Sepal.Width Petal.Length Petal.Width
##           <dbl>       <dbl>        <dbl>       <dbl>
##  1          7           3.2          4.7         1.4
##  2          6.4         3.2          4.5         1.5
##  3          6.9         3.1          4.9         1.5
##  4          5.5         2.3          4           1.3
##  5          6.5         2.8          4.6         1.5
##  6          5.7         2.8          4.5         1.3
##  7          6.3         3.3          4.7         1.6
##  8          4.9         2.4          3.3         1  
##  9          6.6         2.9          4.6         1.3
## 10          5.2         2.7          3.9         1.4
## # ... with 40 more rows, and 1 more variable:
## #   Species <fct>
## 
## [[3]]
## # A tibble: 50 x 5
##    Sepal.Length Sepal.Width Petal.Length Petal.Width
##           <dbl>       <dbl>        <dbl>       <dbl>
##  1          6.3         3.3          6           2.5
##  2          5.8         2.7          5.1         1.9
##  3          7.1         3            5.9         2.1
##  4          6.3         2.9          5.6         1.8
##  5          6.5         3            5.8         2.2
##  6          7.6         3            6.6         2.1
##  7          4.9         2.5          4.5         1.7
##  8          7.3         2.9          6.3         1.8
##  9          6.7         2.5          5.8         1.8
## 10          7.2         3.6          6.1         2.5
## # ... with 40 more rows, and 1 more variable:
## #   Species <fct>
## 
## attr(,"ptype")
## # A tibble: 0 x 5
## # ... with 5 variables: Sepal.Length <dbl>,
## #   Sepal.Width <dbl>, Petal.Length <dbl>,
## #   Petal.Width <dbl>, Species <fct>

如果使用group_split(), 注意分组后，返回的是列表

iris %>%
  group_split(Species)

## [[1]]
## # A tibble: 50 x 5
##    Sepal.Length Sepal.Width Petal.Length Petal.Width
##           <dbl>       <dbl>        <dbl>       <dbl>
##  1          5.1         3.5          1.4         0.2
##  2          4.9         3            1.4         0.2
##  3          4.7         3.2          1.3         0.2
##  4          4.6         3.1          1.5         0.2
##  5          5           3.6          1.4         0.2
##  6          5.4         3.9          1.7         0.4
##  7          4.6         3.4          1.4         0.3
##  8          5           3.4          1.5         0.2
##  9          4.4         2.9          1.4         0.2
## 10          4.9         3.1          1.5         0.1
## # ... with 40 more rows, and 1 more variable:
## #   Species <fct>
## 
## [[2]]
## # A tibble: 50 x 5
##    Sepal.Length Sepal.Width Petal.Length Petal.Width
##           <dbl>       <dbl>        <dbl>       <dbl>
##  1          7           3.2          4.7         1.4
##  2          6.4         3.2          4.5         1.5
##  3          6.9         3.1          4.9         1.5
##  4          5.5         2.3          4           1.3
##  5          6.5         2.8          4.6         1.5
##  6          5.7         2.8          4.5         1.3
##  7          6.3         3.3          4.7         1.6
##  8          4.9         2.4          3.3         1  
##  9          6.6         2.9          4.6         1.3
## 10          5.2         2.7          3.9         1.4
## # ... with 40 more rows, and 1 more variable:
## #   Species <fct>
## 
## [[3]]
## # A tibble: 50 x 5
##    Sepal.Length Sepal.Width Petal.Length Petal.Width
##           <dbl>       <dbl>        <dbl>       <dbl>
##  1          6.3         3.3          6           2.5
##  2          5.8         2.7          5.1         1.9
##  3          7.1         3            5.9         2.1
##  4          6.3         2.9          5.6         1.8
##  5          6.5         3            5.8         2.2
##  6          7.6         3            6.6         2.1
##  7          4.9         2.5          4.5         1.7
##  8          7.3         2.9          6.3         1.8
##  9          6.7         2.5          5.8         1.8
## 10          7.2         3.6          6.1         2.5
## # ... with 40 more rows, and 1 more variable:
## #   Species <fct>
## 
## attr(,"ptype")
…
