第 22 章 列方向和行方向 | 数据科学中的 R 语言
…
22.8 强大的across函数

我们必须为这个函数点赞。大爱Hadley Wickham !!!

我们经常需要对数据框的多列执行相同的操作。比如

iris <- iris %>% as_tibble()
iris

## # A tibble: 150 x 5
##    Sepal.Length Sepal.Width Petal.Length Petal.Width
##           <dbl>       <dbl>        <dbl>       <dbl>
##  1          5.1         3.5          1.4         0.2
##  2          4.9         3            1.4         0.2
##  3          4.7         3.2          1.3         0.2
##  4          4.6         3.1          1.5         0.2
##  5          5           3.6          1.4         0.2
##  6          5.4         3.9          1.7         0.4
##  7          4.6         3.4          1.4         0.3
##  8          5           3.4          1.5         0.2
##  9          4.4         2.9          1.4         0.2
## 10          4.9         3.1          1.5         0.1
## # ... with 140 more rows, and 1 more variable:
## #   Species <fct>
…
A list of functions/lambdas, e.g. list(mean = mean, n_miss = ~ sum(is.na(.x))

再看看这个案例

std <- function(x) {
  (x - mean(x)) / sd(x)
}

iris %>%
  group_by(Species) %>%
  summarise(
    across(starts_with("Sepal"), std)
  )

## # A tibble: 150 x 3
## # Groups:   Species [3]
##    Species Sepal.Length Sepal.Width
##    <fct>          <dbl>       <dbl>
##  1 setosa        0.267       0.190 
##  2 setosa       -0.301      -1.13  
##  3 setosa       -0.868      -0.601 
##  4 setosa       -1.15       -0.865 
##  5 setosa       -0.0170      0.454 
##  6 setosa        1.12        1.25  
##  7 setosa       -1.15       -0.0739
##  8 setosa       -0.0170     -0.0739
##  9 setosa       -1.72       -1.39  
## 10 setosa       -0.301      -0.865 
## # ... with 140 more rows

# purrr style
iris %>%
  group_by(Species) %>%
  summarise(
    across(starts_with("Sepal"), ~ (.x - mean(.x)) / sd(.x))
  )

## # A tibble: 150 x 3
## # Groups:   Species [3]
##    Species Sepal.Length Sepal.Width
##    <fct>          <dbl>       <dbl>
##  1 setosa        0.267       0.190 
##  2 setosa       -0.301      -1.13  
##  3 setosa       -0.868      -0.601 
##  4 setosa       -1.15       -0.865 
##  5 setosa       -0.0170      0.454 
##  6 setosa        1.12        1.25  
##  7 setosa       -1.15       -0.0739
##  8 setosa       -0.0170     -0.0739
##  9 setosa       -1.72       -1.39  
## 10 setosa       -0.301      -0.865 
## # ... with 140 more rows
…
## # A tibble: 3 x 6
##   Species Sepal.Length Sepal.Width   Area Petal.Width
##   <fct>          <dbl>       <dbl>  <dbl>       <dbl>
## 1 setosa          5.01        3.43  0.366         0.1
## 2 versic~         5.94        2.77  5.72          1  
## 3 virgin~         6.59        2.97 11.3           1.4
## # ... with 1 more variable: n <int>

除了在summarise()里可以使用外，在其它函数也是可以使用的

iris %>% mutate(across(is.numeric, mean))

## # A tibble: 150 x 5
##    Sepal.Length Sepal.Width Petal.Length Petal.Width
##           <dbl>       <dbl>        <dbl>       <dbl>
##  1         5.84        3.06         3.76        1.20
##  2         5.84        3.06         3.76        1.20
##  3         5.84        3.06         3.76        1.20
##  4         5.84        3.06         3.76        1.20
##  5         5.84        3.06         3.76        1.20
##  6         5.84        3.06         3.76        1.20
##  7         5.84        3.06         3.76        1.20
##  8         5.84        3.06         3.76        1.20
##  9         5.84        3.06         3.76        1.20
## 10         5.84        3.06         3.76        1.20
## # ... with 140 more rows, and 1 more variable:
## #   Species <fct>

iris %>% mutate(across(starts_with("Sepal"), mean))

## # A tibble: 150 x 5
##    Sepal.Length Sepal.Width Petal.Length Petal.Width
##           <dbl>       <dbl>        <dbl>       <dbl>
##  1         5.84        3.06          1.4         0.2
##  2         5.84        3.06          1.4         0.2
##  3         5.84        3.06          1.3         0.2
##  4         5.84        3.06          1.5         0.2
##  5         5.84        3.06          1.4         0.2
##  6         5.84        3.06          1.7         0.4
##  7         5.84        3.06          1.4         0.3
##  8         5.84        3.06          1.5         0.2
##  9         5.84        3.06          1.4         0.2
## 10         5.84        3.06          1.5         0.1
## # ... with 140 more rows, and 1 more variable:
## #   Species <fct>

iris %>% mutate(across(is.numeric, std)) # std function has defined before

## # A tibble: 150 x 5
##    Sepal.Length Sepal.Width Petal.Length Petal.Width
##           <dbl>       <dbl>        <dbl>       <dbl>
##  1       -0.898      1.02          -1.34       -1.31
##  2       -1.14      -0.132         -1.34       -1.31
##  3       -1.38       0.327         -1.39       -1.31
##  4       -1.50       0.0979        -1.28       -1.31
##  5       -1.02       1.25          -1.34       -1.31
##  6       -0.535      1.93          -1.17       -1.05
##  7       -1.50       0.786         -1.34       -1.18
##  8       -1.02       0.786         -1.28       -1.31
##  9       -1.74      -0.361         -1.34       -1.31
## 10       -1.14       0.0979        -1.28       -1.44
## # ... with 140 more rows, and 1 more variable:
## #   Species <fct>

iris %>% mutate(
  across(is.numeric, ~ .x / 2),
  across(is.factor, stringr::str_to_upper)
)

## # A tibble: 150 x 5
##    Sepal.Length Sepal.Width Petal.Length Petal.Width
##           <dbl>       <dbl>        <dbl>       <dbl>
##  1         2.55        1.75         0.7         0.1 
##  2         2.45        1.5          0.7         0.1 
##  3         2.35        1.6          0.65        0.1 
##  4         2.3         1.55         0.75        0.1 
##  5         2.5         1.8          0.7         0.1 
##  6         2.7         1.95         0.85        0.2 
##  7         2.3         1.7          0.7         0.15
##  8         2.5         1.7          0.75        0.1 
##  9         2.2         1.45         0.7         0.1 
## 10         2.45        1.55         0.75        0.05
## # ... with 140 more rows, and 1 more variable:
## #   Species <chr>
…
## # A tibble: 3 x 2
## # Rowwise: 
##   x             l
##   <list>    <int>
## 1 <dbl [1]>     1
## 2 <int [2]>     2
## 3 <int [3]>     3

22.10.3 行方向上的建模

mtcars <- mtcars %>% as_tibble()
mtcars

## # A tibble: 32 x 11
##      mpg   cyl  disp    hp  drat    wt  qsec    vs
##    <dbl> <dbl> <dbl> <dbl> <dbl> <dbl> <dbl> <dbl>
##  1  21       6  160    110  3.9   2.62  16.5     0
##  2  21       6  160    110  3.9   2.88  17.0     0
##  3  22.8     4  108     93  3.85  2.32  18.6     1
##  4  21.4     6  258    110  3.08  3.22  19.4     1
##  5  18.7     8  360    175  3.15  3.44  17.0     0
##  6  18.1     6  225    105  2.76  3.46  20.2     1
##  7  14.3     8  360    245  3.21  3.57  15.8     0
##  8  24.4     4  147.    62  3.69  3.19  20       1
##  9  22.8     4  141.    95  3.92  3.15  22.9     1
## 10  19.2     6  168.   123  3.92  3.44  18.3     1
## # ... with 22 more rows, and 3 more variables:
## #   am <dbl>, gear <dbl>, carb <dbl>
…
