第 47 章 探索性数据分析-ames房屋价格 | 数据科学中的 R 语言
…
47.3 变量选取

d <- ames %>% 
  select(sale_price, 
         lot_frontage,   # 建筑离街道的距离
         lot_area,       # 占地面积
         neighborhood,   # 建筑在城市的位置
         gr_liv_area,    # 地上居住面积
         bldg_type,      # 住宅类别(联排别墅、独栋别墅...)
         year_built      # 房屋修建日期
         )
d

## # A tibble: 1,460 x 7
##    sale_price lot_frontage lot_area neighborhood
##         <dbl>        <dbl>    <dbl> <chr>       
##  1     208500           65     8450 CollgCr     
##  2     181500           80     9600 Veenker     
##  3     223500           68    11250 CollgCr     
##  4     140000           60     9550 Crawfor     
##  5     250000           84    14260 NoRidge     
##  6     143000           85    14115 Mitchel     
##  7     307000           75    10084 Somerst     
##  8     200000           NA    10382 NWAmes      
##  9     129900           51     6120 OldTown     
## 10     118000           50     7420 BrkSide     
## # ... with 1,450 more rows, and 3 more variables:
## #   gr_liv_area <dbl>, bldg_type <chr>,
## #   year_built <dbl>
…
## # A tibble: 1 x 7
##   sale_price lot_frontage lot_area neighborhood
##        <int>        <int>    <int>        <int>
## 1          0          259        0            0
## # ... with 3 more variables: gr_liv_area <int>,
## #   bldg_type <int>, year_built <int>

找出来看看

d %>% 
  filter_all(
    any_vars(is.na(.))
  )

## # A tibble: 259 x 7
##    sale_price lot_frontage lot_area neighborhood
##         <dbl>        <dbl>    <dbl> <chr>       
##  1     200000           NA    10382 NWAmes      
##  2     144000           NA    12968 Sawyer      
##  3     157000           NA    10920 NAmes       
##  4     149000           NA    11241 NAmes       
##  5     154000           NA     8246 Sawyer      
##  6     149350           NA     8544 Sawyer      
##  7     144000           NA     9180 SawyerW     
##  8     130250           NA     9200 CollgCr     
##  9     177000           NA    13869 Gilbert     
## 10     219500           NA     9375 CollgCr     
## # ... with 249 more rows, and 3 more variables:
## #   gr_liv_area <dbl>, bldg_type <chr>,
## #   year_built <dbl>
…
47.5 预处理

标准化

standard <- function(x) {
  (x - mean(x)) / sd(x)
}

d %>% 
  mutate(
    across(where(is.numeric), standard),
    across(where(is.character), as.factor)
  )

## # A tibble: 1,201 x 7
##    sale_price lot_frontage lot_area neighborhood
##         <dbl>        <dbl>    <dbl> <fct>       
##  1    0.333       -0.208    -0.190  CollgCr     
##  2    0.00875      0.410    -0.0444 Veenker     
##  3    0.512       -0.0844    0.164  CollgCr     
##  4   -0.489       -0.414    -0.0507 Crawfor     
##  5    0.830        0.574     0.544  NoRidge     
##  6   -0.453        0.616     0.525  Mitchel     
##  7    1.51         0.204     0.0167 Somerst     
##  8   -0.610       -0.784    -0.484  OldTown     
##  9   -0.753       -0.826    -0.319  BrkSide     
## 10   -0.615       -0.00206   0.158  Sawyer      
## # ... with 1,191 more rows, and 3 more variables:
## #   gr_liv_area <dbl>, bldg_type <fct>,
## #   year_built <dbl>

对数化

d %>% 
  mutate(
    log_sale_price = log(sale_price)
  )

## # A tibble: 1,201 x 8
##    sale_price lot_frontage lot_area neighborhood
##         <dbl>        <dbl>    <dbl> <chr>       
##  1     208500           65     8450 CollgCr     
##  2     181500           80     9600 Veenker     
##  3     223500           68    11250 CollgCr     
##  4     140000           60     9550 Crawfor     
##  5     250000           84    14260 NoRidge     
##  6     143000           85    14115 Mitchel     
##  7     307000           75    10084 Somerst     
##  8     129900           51     6120 OldTown     
##  9     118000           50     7420 BrkSide     
## 10     129500           70    11200 Sawyer      
## # ... with 1,191 more rows, and 4 more variables:
## #   gr_liv_area <dbl>, bldg_type <chr>,
## #   year_built <dbl>, log_sale_price <dbl>

d %>% 
  mutate(
    across(where(is.numeric), log),
    across(where(is.character), as.factor)
  )

## # A tibble: 1,201 x 7
##    sale_price lot_frontage lot_area neighborhood
##         <dbl>        <dbl>    <dbl> <fct>       
##  1       12.2         4.17     9.04 CollgCr     
##  2       12.1         4.38     9.17 Veenker     
##  3       12.3         4.22     9.33 CollgCr     
##  4       11.8         4.09     9.16 Crawfor     
##  5       12.4         4.43     9.57 NoRidge     
##  6       11.9         4.44     9.55 Mitchel     
##  7       12.6         4.32     9.22 Somerst     
##  8       11.8         3.93     8.72 OldTown     
##  9       11.7         3.91     8.91 BrkSide     
## 10       11.8         4.25     9.32 Sawyer      
## # ... with 1,191 more rows, and 3 more variables:
## #   gr_liv_area <dbl>, bldg_type <fct>,
## #   year_built <dbl>
…
47.6 有趣的探索

47.6.1 各区域的房屋价格均值

d %>% count(neighborhood)

## # A tibble: 25 x 2
##    neighborhood     n
##    <fct>        <int>
##  1 Blmngtn         14
##  2 Blueste          2
##  3 BrDale          16
##  4 BrkSide         51
##  5 ClearCr         13
##  6 CollgCr        126
##  7 Crawfor         41
##  8 Edwards         92
##  9 Gilbert         49
## 10 IDOTRR          34
## # ... with 15 more rows
…
47.7 建模

lm(log_sale_price ~ 1 + log_gr_liv_area + neighborhood, data = d) %>% 
  broom::tidy()

## # A tibble: 26 x 5
##    term          estimate std.error statistic   p.value
##    <chr>            <dbl>     <dbl>     <dbl>     <dbl>
##  1 (Intercept)    7.53       0.154    48.7    2.21e-284
##  2 log_gr_liv_a~  0.638      0.0200   31.9    3.76e-161
##  3 neighborhood~ -0.314      0.149    -2.10   3.55e-  2
##  4 neighborhood~ -0.466      0.0724   -6.43   1.80e- 10
##  5 neighborhood~ -0.336      0.0597   -5.62   2.44e-  8
##  6 neighborhood~ -0.103      0.0762   -1.35   1.76e-  1
##  7 neighborhood~  0.00332    0.0556    0.0597 9.52e-  1
##  8 neighborhood~ -0.0870     0.0612   -1.42   1.55e-  1
##  9 neighborhood~ -0.365      0.0567   -6.44   1.79e- 10
## 10 neighborhood~ -0.0621     0.0599   -1.04   3.00e-  1
## # ... with 16 more rows
…
