第 39 章 探索性数据分析-诺奖获得者 | 数据科学中的 R 语言
…
39.3 导入数据

library(tidyverse)
library(lubridate)

df <- read_csv("./demo_data/nobel_winners.csv")
df

## # A tibble: 969 x 18
##    prize_year category prize motivation prize_share
##         <dbl> <chr>    <chr> <chr>      <chr>      
##  1       1901 Chemist~ The ~ "\"in rec~ 1/1        
##  2       1901 Literat~ The ~ "\"in spe~ 1/1        
##  3       1901 Medicine The ~ "\"for hi~ 1/1        
##  4       1901 Peace    The ~  <NA>      1/2        
##  5       1901 Peace    The ~  <NA>      1/2        
##  6       1901 Physics  The ~ "\"in rec~ 1/1        
##  7       1902 Chemist~ The ~ "\"in rec~ 1/1        
##  8       1902 Literat~ The ~ "\"the gr~ 1/1        
##  9       1902 Medicine The ~ "\"for hi~ 1/1        
## 10       1902 Peace    The ~  <NA>      1/2        
## # ... with 959 more rows, and 13 more variables:
## #   laureate_id <dbl>, laureate_type <chr>,
## #   full_name <chr>, birth_date <date>,
## #   birth_city <chr>, birth_country <chr>,
## #   gender <chr>, organization_name <chr>,
## #   organization_city <chr>,
## #   organization_country <chr>, death_date <date>,
## #   death_city <chr>, death_country <chr>
…
nobel_winners <- df %>%
  mutate_if(is.character, tolower) %>%
  distinct_at(vars(full_name, prize_year, category), .keep_all = TRUE) %>%
  mutate(
    decade = 10 * (prize_year %/% 10),
    prize_age = prize_year - year(birth_date)
  )

nobel_winners

## # A tibble: 911 x 20
##    prize_year category prize motivation prize_share
##         <dbl> <chr>    <chr> <chr>      <chr>      
##  1       1901 chemist~ the ~ "\"in rec~ 1/1        
##  2       1901 literat~ the ~ "\"in spe~ 1/1        
##  3       1901 medicine the ~ "\"for hi~ 1/1        
##  4       1901 peace    the ~  <NA>      1/2        
##  5       1901 peace    the ~  <NA>      1/2        
##  6       1901 physics  the ~ "\"in rec~ 1/1        
##  7       1902 chemist~ the ~ "\"in rec~ 1/1        
##  8       1902 literat~ the ~ "\"the gr~ 1/1        
##  9       1902 medicine the ~ "\"for hi~ 1/1        
## 10       1902 peace    the ~  <NA>      1/2        
## # ... with 901 more rows, and 15 more variables:
## #   laureate_id <dbl>, laureate_type <chr>,
## #   full_name <chr>, birth_date <date>,
## #   birth_city <chr>, birth_country <chr>,
## #   gender <chr>, organization_name <chr>,
## #   organization_city <chr>,
## #   organization_country <chr>, death_date <date>,
## #   death_city <chr>, death_country <chr>,
## #   decade <dbl>, prize_age <dbl>
…
39.8 哪些大神多次获得诺贝尔奖

nobel_winners %>% count(full_name, sort = T)

## # A tibble: 904 x 2
##    full_name                                          n
##    <chr>                                          <int>
##  1 "comité international de la croix rouge (inte~     3
##  2 "frederick sanger"                                 2
##  3 "john bardeen"                                     2
##  4 "linus carl pauling"                               2
##  5 "marie curie, née sklodowska"                      2
##  6 "office of the united nations high commission~     2
##  7 " lie ducommun"                                    1
##  8 "a. michael spence"                                1
##  9 "aage niels bohr"                                  1
## 10 "aaron ciechanover"                                1
## # ... with 894 more rows
…
nobel_winners %>%
  arrange(
    prize_year - year(birth_date)
  )

## # A tibble: 911 x 20
##    prize_year category prize motivation prize_share
##         <dbl> <chr>    <chr> <chr>      <chr>      
##  1       2014 peace    the ~ "\"for th~ 1/2        
##  2       1915 physics  the ~ "\"for th~ 1/2        
##  3       1932 physics  the ~ "\"for th~ 1/1        
##  4       1933 physics  the ~ "\"for th~ 1/2        
##  5       1936 physics  the ~ "\"for hi~ 1/2        
##  6       1957 physics  the ~ "\"for th~ 1/2        
##  7       1923 medicine the ~ "\"for th~ 1/2        
##  8       1961 physics  the ~ "\"for hi~ 1/2        
##  9       1976 peace    the ~  <NA>      1/2        
## 10       2011 peace    the ~ "\"for th~ 1/3        
## # ... with 901 more rows, and 15 more variables:
## #   laureate_id <dbl>, laureate_type <chr>,
## #   full_name <chr>, birth_date <date>,
## #   birth_city <chr>, birth_country <chr>,
## #   gender <chr>, organization_name <chr>,
## #   organization_city <chr>,
## #   organization_country <chr>, death_date <date>,
## #   death_city <chr>, death_country <chr>,
## #   decade <dbl>, prize_age <dbl>
…
nobel_winners_clean %>% count(death_country, sort = TRUE)

## # A tibble: 45 x 2
##    death_country                n
##    <chr>                    <int>
##  1 <NA>                       329
##  2 united states of america   203
##  3 united kingdom              79
##  4 germany                     56
##  5 france                      51
##  6 sweden                      28
##  7 switzerland                 26
##  8 italy                       14
##  9 russia                      11
## 10 spain                       10
## # ... with 35 more rows
…
df4 <- nobel_winners_clean %>%
  filter(birth_country %in% topCountries$birth_country) %>%
  group_by(birth_country, category, prize_year) %>%
  summarise(prizes = n()) %>%
  mutate(cumPrizes = cumsum(prizes))

df4

## # A tibble: 489 x 5
## # Groups:   birth_country, category [47]
##    birth_country category  prize_year prizes cumPrizes
##    <chr>         <chr>          <dbl>  <int>     <int>
##  1 france        chemistry       1906      1         1
##  2 france        chemistry       1912      2         3
##  3 france        chemistry       1913      1         4
##  4 france        chemistry       1935      2         6
##  5 france        chemistry       1970      1         7
##  6 france        chemistry       1987      1         8
##  7 france        chemistry       2016      1         9
##  8 france        economics       1983      1         1
##  9 france        economics       1988      1         2
## 10 france        economics       2014      1         3
## # ... with 479 more rows
…
39.17 出生地和工作地不一样的占比

nobel_winners_clean %>%
  select(category, birth_country, death_country) %>%
  mutate(immigration = if_else(birth_country == death_country, 0, 1))

## # A tibble: 911 x 4
##    category   birth_country death_country  immigration
##    <chr>      <chr>         <chr>                <dbl>
##  1 chemistry  netherlands   germany                  1
##  2 literature france        france                   0
##  3 medicine   poland        germany                  1
##  4 peace      switzerland   switzerland              0
##  5 peace      france        france                   0
##  6 physics    germany       germany                  0
##  7 chemistry  germany       germany                  0
##  8 literature germany       germany                  0
##  9 medicine   india         united kingdom           1
## 10 peace      switzerland   switzerland              0
## # ... with 901 more rows
…
