第 17 章 ggplot2之扩展内容 | 数据科学中的 R 语言
…
17.2 定制

17.2.1 标签

gapdata <- read_csv("./demo_data/gapminder.csv")
gapdata

## # A tibble: 1,704 x 6
##    country    continent  year lifeExp     pop gdpPercap
##    <chr>      <chr>     <dbl>   <dbl>   <dbl>     <dbl>
##  1 Afghanist~ Asia       1952    28.8  8.43e6      779.
##  2 Afghanist~ Asia       1957    30.3  9.24e6      821.
##  3 Afghanist~ Asia       1962    32.0  1.03e7      853.
##  4 Afghanist~ Asia       1967    34.0  1.15e7      836.
##  5 Afghanist~ Asia       1972    36.1  1.31e7      740.
##  6 Afghanist~ Asia       1977    38.4  1.49e7      786.
##  7 Afghanist~ Asia       1982    39.9  1.29e7      978.
##  8 Afghanist~ Asia       1987    40.8  1.39e7      852.
##  9 Afghanist~ Asia       1992    41.7  1.63e7      649.
## 10 Afghanist~ Asia       1997    41.8  2.22e7      635.
## # ... with 1,694 more rows
…
gapdata %>% filter(continent == "Asia")

## # A tibble: 396 x 6
##    country    continent  year lifeExp     pop gdpPercap
##    <chr>      <chr>     <dbl>   <dbl>   <dbl>     <dbl>
##  1 Afghanist~ Asia       1952    28.8  8.43e6      779.
##  2 Afghanist~ Asia       1957    30.3  9.24e6      821.
##  3 Afghanist~ Asia       1962    32.0  1.03e7      853.
##  4 Afghanist~ Asia       1967    34.0  1.15e7      836.
##  5 Afghanist~ Asia       1972    36.1  1.31e7      740.
##  6 Afghanist~ Asia       1977    38.4  1.49e7      786.
##  7 Afghanist~ Asia       1982    39.9  1.29e7      978.
##  8 Afghanist~ Asia       1987    40.8  1.39e7      852.
##  9 Afghanist~ Asia       1992    41.7  1.63e7      649.
## 10 Afghanist~ Asia       1997    41.8  2.22e7      635.
## # ... with 386 more rows
…
