第 13 章 ggplot2之几何对象 | 数据科学中的 R 语言
…
采菊东篱下，悠然见南山。

根据大家投票，觉得ggplot2是最想掌握的技能，我想这就是R语言中最有质感的部分吧。所以，这里专门拿出一节课讲ggplot2，也算是补上之前第 7 章数据可视化没讲的内容。

library(tidyverse)

13.1 一个有趣的案例

先看一组数据

df <- read_csv("./demo_data/datasaurus.csv")
df

## # A tibble: 1,846 x 3
##    dataset     x     y
##    <chr>   <dbl> <dbl>
##  1 dino     55.4  97.2
##  2 dino     51.5  96.0
##  3 dino     46.2  94.5
##  4 dino     42.8  91.4
##  5 dino     40.8  88.3
##  6 dino     38.7  84.9
##  7 dino     35.6  79.9
##  8 dino     33.1  77.6
##  9 dino     29.0  74.5
## 10 dino     26.2  71.4
## # ... with 1,836 more rows
…
两个离散

两个连续

一个离散, 一个连续

三个连续

13.3.1 导入数据

gapdata <- read_csv("./demo_data/gapminder.csv")
gapdata

## # A tibble: 1,704 x 6
##    country    continent  year lifeExp     pop gdpPercap
##    <chr>      <chr>     <dbl>   <dbl>   <dbl>     <dbl>
##  1 Afghanist~ Asia       1952    28.8  8.43e6      779.
##  2 Afghanist~ Asia       1957    30.3  9.24e6      821.
##  3 Afghanist~ Asia       1962    32.0  1.03e7      853.
##  4 Afghanist~ Asia       1967    34.0  1.15e7      836.
##  5 Afghanist~ Asia       1972    36.1  1.31e7      740.
##  6 Afghanist~ Asia       1977    38.4  1.49e7      786.
##  7 Afghanist~ Asia       1982    39.9  1.29e7      978.
##  8 Afghanist~ Asia       1987    40.8  1.39e7      852.
##  9 Afghanist~ Asia       1992    41.7  1.63e7      649.
## 10 Afghanist~ Asia       1997    41.8  2.22e7      635.
## # ... with 1,694 more rows
…
这是一种技巧，但我更推荐以下方法

d1 <- gapdata %>%
  filter(country %in% jCountries) %>%
  group_by(country) %>%
  mutate(end_label = if_else(year == max(year), country, NA_character_))

d1

## # A tibble: 48 x 7
## # Groups:   country [4]
##    country continent  year lifeExp    pop gdpPercap
##    <chr>   <chr>     <dbl>   <dbl>  <dbl>     <dbl>
##  1 Cambod~ Asia       1952    39.4 4.69e6      368.
##  2 Cambod~ Asia       1957    41.4 5.32e6      434.
##  3 Cambod~ Asia       1962    43.4 6.08e6      497.
##  4 Cambod~ Asia       1967    45.4 6.96e6      523.
##  5 Cambod~ Asia       1972    40.3 7.45e6      422.
##  6 Cambod~ Asia       1977    31.2 6.98e6      525.
##  7 Cambod~ Asia       1982    51.0 7.27e6      624.
##  8 Cambod~ Asia       1987    53.9 8.37e6      684.
##  9 Cambod~ Asia       1992    55.8 1.02e7      682.
## 10 Cambod~ Asia       1997    56.5 1.18e7      734.
## # ... with 38 more rows, and 1 more variable:
## #   end_label <chr>
…
