第 7 章 数据可视化 | 数据科学中的 R 语言
…
先看一个简单的案例（1880-2014年温度变化和二氧化碳排放量）

library(tidyverse)
d <- read_csv("./demo_data/temp_carbon.csv")
d

## # A tibble: 135 x 5
##     year temp_anomaly land_anomaly ocean_anomaly
##    <dbl>        <dbl>        <dbl>         <dbl>
##  1  1880        -0.11        -0.48         -0.01
##  2  1881        -0.08        -0.4           0.01
##  3  1882        -0.1         -0.48          0   
##  4  1883        -0.18        -0.66         -0.04
##  5  1884        -0.26        -0.69         -0.14
##  6  1885        -0.25        -0.56         -0.17
##  7  1886        -0.24        -0.51         -0.17
##  8  1887        -0.28        -0.47         -0.23
##  9  1888        -0.13        -0.41         -0.05
## 10  1889        -0.09        -0.31         -0.02
## # ... with 125 more rows, and 1 more variable:
## #   carbon_emissions <dbl>
…
