第 34 章 广义线性模型 | 数据科学中的 R 语言
…
library(tidyverse)

df <- read_rds("./demo_data/fish.rds")
df

## # A tibble: 200 x 2
##    pollution_level number_of_fish
##              <dbl>          <int>
##  1         0                    4
##  2         0.00503              2
##  3         0.0101               1
##  4         0.0151               5
##  5         0.0201               4
##  6         0.0251               1
##  7         0.0302               2
##  8         0.0352               2
##  9         0.0402               3
## 10         0.0452               1
## # ... with 190 more rows
…
##     1     2     3     4     5     6 
## 4.004 3.942 3.880 3.820 3.761 3.703

实质上就是\(exp(\beta_0 + \beta_1 * pollution_level)\)

intercept <- coef(m)[1]
beta <- coef(m)[2]

df %>%
  dplyr::mutate(theory_pred = fitted(m)) %>%
  dplyr::mutate(
    myguess_pred = exp(intercept + beta * pollution_level)
  )

## # A tibble: 200 x 4
##    pollution_level number_of_fish theory_pred
##              <dbl>          <int>       <dbl>
##  1         0                    4        4.00
##  2         0.00503              2        3.94
##  3         0.0101               1        3.88
##  4         0.0151               5        3.82
##  5         0.0201               4        3.76
##  6         0.0251               1        3.70
##  7         0.0302               2        3.65
##  8         0.0352               2        3.59
##  9         0.0402               3        3.53
## 10         0.0452               1        3.48
## # ... with 190 more rows, and 1 more variable:
## #   myguess_pred <dbl>
…
df_pred <- df %>%
  dplyr::mutate(
    fit = pred$fit,
    se_fit = pred$se.fit
  )
df_pred

## # A tibble: 200 x 4
##    pollution_level number_of_fish   fit se_fit
##              <dbl>          <int> <dbl>  <dbl>
##  1         0                    4  4.00  0.391
##  2         0.00503              2  3.94  0.381
##  3         0.0101               1  3.88  0.371
##  4         0.0151               5  3.82  0.362
##  5         0.0201               4  3.76  0.352
##  6         0.0251               1  3.70  0.343
##  7         0.0302               2  3.65  0.334
##  8         0.0352               2  3.59  0.325
##  9         0.0402               3  3.53  0.317
## 10         0.0452               1  3.48  0.309
## # ... with 190 more rows
…
