第 31 章 统计检验与线性模型的等价性 | 数据科学中的 R 语言
…
也就说，相同的指标在不同的时期测了三次，目的是考察期间的干预措施对若干指标的影响。

library(tidyverse)
library(knitr)
library(kableExtra)

edata <- read_csv("./demo_data/Experim.csv")  %>%
  mutate(group = if_else(group == "maths skills", 1, 2)) %>% 
  mutate(
    across(c(sex, id, group), as.factor)
    )
edata

## # A tibble: 30 x 18
##    id    sex     age group fost1 confid1 depress1 fost2
##    <fct> <fct> <dbl> <fct> <dbl>   <dbl>    <dbl> <dbl>
##  1 4     male     23 2        50      15       44    48
##  2 10    male     21 2        47      14       42    45
##  3 9     male     25 1        44      12       40    39
##  4 3     male     30 1        47      11       43    42
##  5 12    male     45 2        46      16       44    45
##  6 11    male     22 1        39      13       43    40
##  7 6     male     22 2        32      21       37    33
##  8 5     male     26 1        44      17       46    37
##  9 8     male     23 2        40      22       37    40
## 10 13    male     21 1        47      20       50    45
## # ... with 20 more rows, and 10 more variables:
## #   confid2 <dbl>, depress2 <dbl>, fost3 <dbl>,
## #   confid3 <dbl>, depress3 <dbl>, exam <dbl>,
## #   mah_1 <dbl>, DepT1gp2 <chr>, DepT2Gp2 <chr>,
## #   DepT3gp2 <chr>
…
